   22  ps aux
   23  ps aux | more
   24  l
   25  l cegma_capture/
   26  l
   27  cd rnaseq_capture/
   28  l
   29  cd ..
   30  l
   31  cd est_capture/
   32  l
   33  cd ..
   34  l
   35  cd asm_stats/
   36  l
   37  l mito_ass
   38  cd ..
   39  l mito_assembly/
   40  l mito_tetramer/
   41  l
   42  l spades/
   43  l
   44  l asm_stats/
   45  vi asm_stats/main.override.info
   46  l
   47  l
   48  cat run7.q
   49  qsub run7.q
   50  qstat
   51  l
   52  l
   53  l cegma_capture/
   54  l asm_stats/
   55  l
   56  l asm_plots/
   57  l
   58  qstat
   59  l
   60  tail falcon_asm.log
   61  tail falcon_asm.log
   62  l
   63  cd pread_kmer                                                                     
   64  l
   65  l
   66  cd ..
   67  qsub run7.q
   68  l
   69  vi fungal_SC.o36284116.1
   70  vi fungal_SC.o36284835.1
   71  vi falcon_asm.log
   72  vi falcon_status.log
   73  qsub run7.q
   74  qstat
   75  qstat
   76  l
   77  cat fungal_SC.o36285846.1
   78  l
   79  l gc_cov/
   80  l blast
   81  qstat
   82  l
   83  cd tetramer/
   84  l
   85  cd ..
   86  qstat
   87  l
   88  l gc_cov/
   89  l
   90  qstat
   91  l
   92  l
   93  qstat
   94  l
   95  cd tetramer/
   96  l
   97  cd ..
   98  l
   99  l blast
  100  qstat
  101  l
  102  reformat.sh 
  103  reformat.sh |more
  104  reformat.sh |grep out
  105  l
  106  l jamo*
  107  cd spades/
  108  l
  109  cat jamo_AUAAP.txt 
  110  module load jamo
  111  select file_path, file_name where metadata.library_name = AUAAP and file_type = fastq
  112  module load jamo
  113  jamo report select file_path, file_name where metadata.library_name = AUAAP and file_type = fastq
  114  jamo report select file_path, file_name where metadata.library_name in (AUAAP,AUAAW) and file_type = fastq
  115  jamo report select file_path, file_name where metadata.library_name = (AUAAP,AUAAW) and file_type = fastq
  116  jamo info filtered library AUAAP AUAAW
  117  jamo info filtered library AUAAP AUAAS
  118  jamo info filtered library AUAAP,AUAAS
  119  cd ..
  120  vi run7.q
  121  jamo info filtered library NTCB NTBY AUAAB NTBZ AUAAC AUAAG NTBW AUAAS AUAAH AUAAN AUAAO AUAAP
  122  vi run7.q
  123  qsub run7.q
  124  l
  125  qstat
  126  qdel 36327193
  127  l
  128  cd ..
  129  mkdir Rozella_allomycis_COASS
  130  cd Rozella_allomycis_COASS/
  131  cp ../AUAAP/run* .
  132  l
  133  cat run7.q
  134  cat run7.sh 
  135  cat run7.q
  136  qsub run7.q
  137  qstat
  138  l
  139  vi falcon_asm.log
  140  vi fungal_SC.e36327200.1
  141  python
  142  l
  143  rm -rf falcon_asm.log fungal_SC.*
  144  l
  145  cat run7.sh 
  146  cat run7.q
  147  qsub run7.q
  148  l
  149  vi fungal_SC.e36402462.1
  150  l ..
  151  vi run7.q
  152  rm -rf falcon_asm.log fungal_SC.*
  153  qsub run7.q
  154  qstat
  155  qstat
  156  l
  157  vi fungal_SC.e36402530.1
  158  l
  159  rm -rf falcon_asm.log  fungal_SC.*
  160  l
  161  l
  162  l
  163  qsub run7.q
  164  qstat
  165  l
  166  l
  167  vi falcon_asm.log 
  168  cat run7.q
  169  l
  170  rm -rf falcon_asm.log fungal_SC.*
  171  qsub run7.q
  172  l
  173  qstat
  174  l
  175  qstat
  176  l
  177  vi falcon_asm.log
  178  l
  179  qstat
  180  l
  181  cat fungal_SC.o36404965.1
  182  vi falcon_asm.log
  183  l
  184  rm -rf fungal_SC.* falcon_* spades/
  185  l
  186  rm -rf rqc-stats.tmp 
  187  qsub run7.q
  188  l
  189  l spades/
  190  cd spades/
  191  vi spades.log 
  192  cd ..
  193  l
  194  vi falcon_asm.log
  195  jamo report jamo info filtered library AUAAP NTCB NTBY AUAAB NTBZ AUAAC AUAAG NTBW AUAAS AUAAH AUAAN AUAAO
  196  vi falcon_asm.log
  197  l
  198  rm -rf spades/ rqc-stats.tmp  f*
  199  l
  200  qsub run7.q
  201  qstat
  202  qstat
  203  qstat -j 36285846
  204  l
  205  l ../AUAAP
  206  l
  207  vi falcon_asm.log
  208  cd spq
  209  cd spades/
  210  l
  211  cat jamo_AUAAP_NTCB_NTBY_AUAAB_NTBZ_AUAAC_AUAAG_NTBW_AUAAS_AUAAH_AUAAN_AUAAO.txt 
  212  l
  213  cd ..
  214  l
  215  vi fungal_SC.e36427164.1
  216  python
  217  l
  218  rm -rf f* spades/ rqc-stats.tmp 
  219  l
  220  qsub run7.q
  221  qstat
  222  qstat
  223  l
  224  l spades/
  225  cat spades/jamo_AUAAP_NTCB_NTBY_AUAAB_NTBZ_AUAAC_AUAAG_NTBW_AUAAS_AUAAH_AUAAN_AUAAO.txt 
  226  qstat
  227  l
  228  l spades/
  229  l
  230  l
  231  l spades/
  232  vi spades/spades.log 
  233  l
  234  vi fungal_SC.o36431396.1
  235  qqacct -q "job_number == 36431396"
  236  vi falcon_status.log
  237  vi falcon_status.log
  238  vi falcon_asm.log
  239  vi falcon_asm.log
  240  cd spades/
  241  l
  242  l input.fastq
  243  cat jamo_AUAAP_NTCB_NTBY_AUAAB_NTBZ_AUAAC_AUAAG_NTBW_AUAAS_AUAAH_AUAAN_AUAAO.txt 
  244  l
  245  l ../../../GAA-1865/run*
  246  cd ../../../
  247  tar tvf GAA-1865_V2.tar 
  248  tar tvf GAA-1865_V2.tar  | grep run
  249  tar xvf GAA-1865_V2.tar GAA-1865/run6.2.sh
  250  cd GAA-1865
  251  l
  252  cat run6.2.sh 
  253  history | grep cd
  254  cd  $SCRATCH/fungal_singlecell
  255  cd Rozella_allomycis_COASS/
  256  l
  257  rm -rf spades/ f* rqc-stats.tmp 
  258  l
  259  cat run7.q
  260  qsub run7.q
  261  qstat
  262  qstat
  263  qstat
  264  qstat
  265  l
  266  l spades/
  267  l
  268  vi falcon_asm.log
  269  vi fungal_SC.o36441092.1
  270  vi fungal_SC.e36441092.1
  271  vi run7.q
  272  qsub run7.q
  273  qstat
  274  l
  275  vi falcon_asm.log
  276  l
  277  l spades/
  278  l
  279  l
  280  l
  281  l spades/
  282  l
  283  l spades/
  284  l
  285  l
  286  qstat
  287  qdel 36464279
  288  mv spades/ spades.BAK
  289  qsub run7.q
  290  qstat
  291  l
  292  l
  293  qstat
  294  qstat
  295  l
  296  l spades
  297  l mito_assembly/
  298  l
  299  vi fungal_SC.o36464296.1
  300  vi fungal_SC.e36464296.1
  301  mv spades spades.BAKK
  302  qsub run7.q
  303  qstat
  304  l
  305  qstat
  306  l tetramer/
  307  l
  308  l itd
  309  l its
  310  l
  311  l mito_assembly
  312  l mito_tetramer
  313  l
  314  qstat
  315  l
  316  cd mito_assembly/
  317  l
  318  zcat /global/projectb/scratch/andreopo/fungal_singlecell/Rozella_allomycis_COASS/spades/input.fastq.normalized.fq.gz
  319  l
  320  mv reads.fastq reads.fastq.gz
  321  l
  322  reformat.sh in=reads.fastq.gz out=reads.fa
  323  l
  324  vi ../falcon_asm.log 
  325  /global/projectb/sandbox/rqc/andreopo/src/bitbucket/fungal_singlecell/bin/assemblemito_illumina_sc.sh
  326  reformat.sh 
  327  reformat.sh | grep mingc
  328  reformat.sh | grep maxgc
  329  /global/projectb/sandbox/rqc/andreopo/src/bitbucket/fungal_singlecell/bin/assemblemito_illumina_sc.sh
  330  /global/projectb/sandbox/rqc/andreopo/src/bitbucket/fungal_singlecell/bin/assemblemito_illumina_sc.sh
  331  l
  332  cd ..
  333  l
  334  qstat
  335  cd ..
  336  mkdir Rozella_allomycis_COASS2
  337  cd Rozella_allomycis_COASS
  338  cd ../Rozella_allomycis_COASSw
  339  cd ../Rozella_allomycis_COASS2
  340  l
  341  cp ../Rozella_allomycis_COASS/run* .
  342  l
  343  vi run7.q
  344  vi run7.q
  345  qsub run7.q
  346  qstat
  347  qstat
  348  l
  349  l
  350  l spades/
  351  l
  352  l
  353  l spades/
  354  tail spades/spades.log
  355  l
  356  qstat
  357  l spades/
  358  tail spades/spades.log 
  359  l
  360  cd ../Rozella_allomycis_COASS
  361  l
  362  tail falcon_asm.log 
  363  l
  364  cd ../Rozella_allomycis_COASS
  365  cd ../Rozella_allomycis_COASS2/
  366  cd ../Rozella_allomycis_COASS
  367  l
  368  tail falcon_asm.log 
  369  l
  370  l mito_assembly/
  371  l
  372  vi falcon_asm.log 
  373  qstat
  374  qstat -j 36464298
  375  cat run7.q
  376  qstat -j 36489364
  377  qstat
  378  l
  379  cat run7.q
  380  cd ../Rozella_allomycis_COASS2
  381  cat run7.q
  382  qstat
  383  qstat -j 36489364
  384  cat run7.q
  385  l
  386  l
  387  l spades/
  388  l
  389  tail spades/spades.log 
  390  l
  391  l
  392  l
  393  l
  394  l blast
  395  l
  396  l mito_assembly/
  397  l
  398  l tetramer/
  399  l
  400  l blast
  401  l
  402  vi falcon_asm.log 
  403  qstat
  404  l
  405  cat run7.sh                                                                                                                                       
  406  l
  407  l
  408  l ../../../../sandbox/rqc/andreopo/src/bitbucket/fungal_singlecell/
  409  cp   ../../../../sandbox/rqc/andreopo/src/bitbucket/fungal_singlecell/bin/fungal_sc.py    ../../../../sandbox/rqc/andreopo/src/bitbucket/fungal_singlecell/bin/fungal_sc.py.BAK
  410  diff    ../../../../sandbox/rqc/andreopo/src/bitbucket/fungal_singlecell/bin/fungal_sc.py    ../../../../sandbox/rqc/andreopo/src/bitbucket/fungal_singlecell/bin/fungal_sc.py.BAK
  411  qqacct -q "job_number == 36875929"
  412  qqacct -q "job_number == 36875929"  |  grep 93
  413  qqacct -q "job_number == 36875929"  |  head
  414  qqacct -q "job_number == 36875929"  |  head
  415  l
  416  cd spades/
  417  l
  418  cd ..
  419  l
  420  l
  421  cat run7.q
  422  cat run7.sh 
  423  cat run7.config 
  424  cd ..
  425  mkdir Rozella_allomycis_COASS3
  426  cd Rozella_allomycis_COASS3
  427  cp ../Rozella_allomycis_COASS2/run* .
  428  l
  429  cat run7.q
  430  cat run7.sh 
  431  qsub run7.q
  432  qstat
  433  qstat
  434  qstat
  435  l
  436  l
  437  qstat
  438  qstat
  439  cat run7.q
  440  qstat
  441  qstat
  442  qstat
  443  l
  444  l
  445  qstat
  446  qdel 36908398
  447  l
  448  cat run7.
  449  cat run7.q
  450  python  /global/projectb/sandbox/rqc/andreopo/src/bitbucket/fungal_singlecell/bin/fungal_sc.py -l AUAAP,NTCB,NTBY,AUAAB,NTBZ,AUAAC,AUAAG,NTBW,AUAAS,AUAAH,AUAAN,AUAAO
  451  l
  452  l spades/
  453  qlogin -q high_excl.q
  454  l
  455  l spades/
  456  l
  457  ssh andreopo@gpweb35
  458  ssh andreopo@gpweb35
  459  cd /global/projectb/sandbox/rqc/andreopo/
  460  l
  461  unzip  instantclient-sqlplus-linux.x64-12.2.0.1.0.zip 
  462  cd instantclient
  463  cd instantclient_12_2/
  464  l
  465  ./sqlplus 
  466  echo $LD_LIBRARY_PATH
  467  /usr/common/jgi/oracle_client/11.2.0.3.0/client_1/bin/sqlplus 
  468  /usr/common/jgi/oracle_client/11.2.0.3.0/client_1/bin/sqlplus  -h
  469  /usr/common/jgi/oracle_client/11.2.0.3.0/client_1/bin/sqlplus  -h | more
  470  /usr/common/jgi/oracle_client/11.2.0.3.0/client_1/bin/sqlplus  dw_user@dwprd1
  471  /usr/common/jgi/oracle_client/11.2.0.3.0/client_1/bin/sqlplus  -h | more
  472  /usr/common/jgi/oracle_client/11.2.0.3.0/client_1/bin/sqlplus  -s  dw_user/dw_user@dwprd1  <<< "select b.lib_name, a.GROUP_NAME FROM DW.SAMPLES a inner join DW.ALL_INCLUSIVE_REPORT b on a.sample_id=b.sam_id where b.lib_name IN ( 'BUNNB' );"
  473  /usr/common/jgi/oracle_client/11.2.0.3.0/client_1/bin/sqlplus  -s  dw_user/dw_user@dwprd1  <<< "select b.lib_name, a.GROUP_NAME FROM DW.SAMPLES a inner join DW.ALL_INCLUSIVE_REPORT b on a.sample_id=b.sam_id where b.lib_name IN ( 'BUNNB', 'BUNPC' );"
  474  LIBS="'BUNNB', 'BUNPC'"
  475  echo $LIBS
  476  /usr/common/jgi/oracle_client/11.2.0.3.0/client_1/bin/sqlplus  -s  dw_user/dw_user@dwprd1  <<< "select b.lib_name, a.GROUP_NAME FROM DW.SAMPLES a inner join DW.ALL_INCLUSIVE_REPORT b on a.sample_id=b.sam_id where b.lib_name IN ( $LIBS );"
  477  ssh andreopo@gpint208
  478  ssh andreopo@gpint208.nersc.gov
  479  module load tmux
  480  tmux attach-session
  481  collabsu qc_user
  482  cd /global/projectb/sandbox/rqc/andreopo/deploy/sag16s/dev/web/sag16s/conf/
  483   ./httpd_start.sh
  484  module load tmux
  485  tmux attach-session
  486  crontab -l > ~/cron.singlecell_sag16s.bill2
  487  cat  ~/cron.singlecell_sag16s.bill2
  488  cat /global/homes/a/andreopo/dbbackup.sh
  489  history | grep tmux
  490  module load tmux
  491  tmux attach-session
  492  tmux create-session
  493  tmux new-session
  494  vi survey.txt
  495  module load tmux
  496  tmux attach-session
  497  module load tmux
  498  tmux attach-session
  499  module load tmux
  500  tmux attach-session
  501  cd /global/projectb/scratch/andreopo/
  502  find . | xargs touch -a
  503  cd NN/read-autoencoder/NN_sequence_classify
  504  l
  505  module load deeplearning
  506  cd M
  507  cd MITO/
  508  module load bbtools
  509  for i in `ls *fasta` ; do shred.sh in=$i out=$i.150.fasta length=150 ;done
  510  l
  511  for i in `ls *.fasta.150.fasta` ; do  egrep -v "^>"  $i  > $i.70bp ;done
  512  l
  513  history > cmds2.log
  514  wc main.scaffolds.fasta.150.fasta.70bp
  515  wc mito.scaffolds.fasta.150.fasta.70bp
  516  for i in {1..20} ; do cat mito.scaffolds.fasta.150.fasta.70bp ; done >> mito.scaffolds.fasta.150.fasta.70bp_BALANCED
  517  l
  518  history > cmds2.log 
  519  l
  520  cat main.scaffolds.fasta.150.fasta.70bp  mito.scaffolds.fasta.150.fasta.70bp_BALANCED  >> main_mito_BALANCED.fasta
  521  history > cmds2.log
